[
    {
      "id":1,
      "title": "First note",
      "description": "This is the description for the first note",
      "color":"red",
      "categoryId": "1"
    },
    {
      "id": 2,
      "title": "Second note",
      "description": "This is the description for the second note",
      "color":"orange",
      "categoryId": "2"
    },
    {
      "id": 3,
      "title": "Third note",
      "description": "This is the description for the third note",
      "color":"green",
      "categoryId": "2"
    },
    {
      "id": 4,
      "title": "Fourth note",
      "description": "This is the description for the fourth note",
      "color":"blue",
      "categoryId": "3"
    },
    {
      "id": 5,
      "title": "Fifth note",
      "description": "This is the description for the fifth note",
      "color":"red",
      "categoryId": "3"
    },
    {
      "id": 6,
      "title": "Sixth note",
      "description": "This is the description for the sixth note",
      "color":"red",
      "categoryId": "3"
    },
    {
      "id": 7,
      "title": "Seventh note",
      "description": "This is the description for the seventh note",
      "color":"green",
      "categoryId": "1"
    },
    {
      "id": 8,
      "title": "Eighth note",
      "description": "This is the description for the eighth note",
      "color":"yellow",
      "categoryId": "2"
    },
    {
      "id": 9,
      "title": "Ninth note",
      "description": "This is the description for the ninth note",
      "color":"purple",
      "categoryId": "1"
    },
    {
      "id": 10,
      "title": "Tenth note",
      "description": "This is the description for the tenth note",
      "color":"green",
      "categoryId": "3"
    },
    {
      "id":11,
      "title": "Eleventh note",
      "description": "This is the description for the eleventh note",
      "color":"blue",
      "categoryId": "1"
    },
    {
      "id": 12,
      "title": "Twelfth note",
      "description": "This is the description for the twelfth note",
      "color":"yellow",
      "categoryId": "2"
    }
  ]
  